<?xml version="1.0" encoding="UTF-8" standalone="no"?>
<!-- Created with Inkscape (http://www.inkscape.org/) -->

<svg
   xmlns:dc="http://purl.org/dc/elements/1.1/"
   xmlns:cc="http://creativecommons.org/ns#"
   xmlns:rdf="http://www.w3.org/1999/02/22-rdf-syntax-ns#"
   xmlns:svg="http://www.w3.org/2000/svg"
   xmlns="http://www.w3.org/2000/svg"
   xmlns:sodipodi="http://sodipodi.sourceforge.net/DTD/sodipodi-0.dtd"
   xmlns:inkscape="http://www.inkscape.org/namespaces/inkscape"
   version="1.1"
   id="svg4676"
   xml:space="preserve"
   width="416.68723"
   height="636.06409"
   viewBox="0 0 416.68723 636.06407"
   sodipodi:docname="display_posters.svg"
   inkscape:version="0.92.2 (5c3e80d, 2017-08-06)"><metadata
     id="metadata4682"><rdf:RDF><cc:Work
         rdf:about=""><dc:format>image/svg+xml</dc:format><dc:type
           rdf:resource="http://purl.org/dc/dcmitype/StillImage" /><dc:title></dc:title></cc:Work></rdf:RDF></metadata><defs
     id="defs4680"><clipPath
       clipPathUnits="userSpaceOnUse"
       id="clipPath4694"><path
         d="m 8.74,1334 c -4.586,-1.46 -7.224,-3.772 -8.74,-7.117 v 0 V 8.279 C 2.786,1.841 9.138,2 23.611,2 V 2 L 716.828,2.137 C 747.823,2 747.698,1.5 747.698,38.165 v 0 l 0.125,1265.702 c 0,17.263 -2.448,26.497 -13.71,30.133 v 0 z"
         id="path4692"
         inkscape:connector-curvature="0" /></clipPath><clipPath
       clipPathUnits="userSpaceOnUse"
       id="clipPath4714"><path
         d="M 0,1334 H 750 V 0 H 0 Z"
         id="path4712"
         inkscape:connector-curvature="0" /></clipPath><clipPath
       clipPathUnits="userSpaceOnUse"
       id="clipPath4730"><path
         d="M 0,1334 H 750 V 0 H 0 Z"
         id="path4728"
         inkscape:connector-curvature="0" /></clipPath><clipPath
       clipPathUnits="userSpaceOnUse"
       id="clipPath4790"><path
         d="M 0,1334 H 750 V 0 H 0 Z"
         id="path4788"
         inkscape:connector-curvature="0" /></clipPath><clipPath
       clipPathUnits="userSpaceOnUse"
       id="clipPath4824"><path
         d="M 0,1334 H 750 V 0 H 0 Z"
         id="path4822"
         inkscape:connector-curvature="0" /></clipPath><clipPath
       clipPathUnits="userSpaceOnUse"
       id="clipPath4872"><path
         d="M 0,1334 H 750 V 0 H 0 Z"
         id="path4870"
         inkscape:connector-curvature="0" /></clipPath><clipPath
       clipPathUnits="userSpaceOnUse"
       id="clipPath4932"><path
         d="M 0,1334 H 750 V 0 H 0 Z"
         id="path4930"
         inkscape:connector-curvature="0" /></clipPath><clipPath
       clipPathUnits="userSpaceOnUse"
       id="clipPath5022"><path
         d="M 0,1334 H 750 V 0 H 0 Z"
         id="path5020"
         inkscape:connector-curvature="0" /></clipPath><clipPath
       clipPathUnits="userSpaceOnUse"
       id="clipPath5106"><path
         d="M 0,1334 H 750 V 0 H 0 Z"
         id="path5104"
         inkscape:connector-curvature="0" /></clipPath><clipPath
       clipPathUnits="userSpaceOnUse"
       id="clipPath5134"><path
         d="M 0,1334 H 750 V 0 H 0 Z"
         id="path5132"
         inkscape:connector-curvature="0" /></clipPath><clipPath
       clipPathUnits="userSpaceOnUse"
       id="clipPath5192"><path
         d="M 0,1334 H 750 V 0 H 0 Z"
         id="path5190"
         inkscape:connector-curvature="0" /></clipPath><clipPath
       clipPathUnits="userSpaceOnUse"
       id="clipPath5252"><path
         d="M 0,1334 H 750 V 0 H 0 Z"
         id="path5250"
         inkscape:connector-curvature="0" /></clipPath><clipPath
       clipPathUnits="userSpaceOnUse"
       id="clipPath5346"><path
         d="M 0,1334 H 750 V 0 H 0 Z"
         id="path5344"
         inkscape:connector-curvature="0" /></clipPath></defs><sodipodi:namedview
     pagecolor="#ffffff"
     bordercolor="#666666"
     borderopacity="1"
     objecttolerance="10"
     gridtolerance="10"
     guidetolerance="10"
     inkscape:pageopacity="0"
     inkscape:pageshadow="2"
     inkscape:window-width="1920"
     inkscape:window-height="1017"
     id="namedview4678"
     showgrid="false"
     fit-margin-top="0"
     fit-margin-left="0"
     fit-margin-right="0"
     fit-margin-bottom="0"
     inkscape:zoom="0.75057208"
     inkscape:cx="9.0311659"
     inkscape:cy="328.89789"
     inkscape:window-x="-8"
     inkscape:window-y="-8"
     inkscape:window-maximized="1"
     inkscape:current-layer="g4684" /><g
     id="g4684"
     inkscape:groupmode="layer"
     inkscape:label="TUGBoat_iPhone01"
     transform="matrix(1.3333333,0,0,-1.3333333,-289.63439,1192.6379)"><text
       transform="matrix(1,0,0,-1,232.2139,524.2676)"
       style="font-variant:normal;font-weight:bold;font-stretch:normal;font-size:39px;font-family:'Titillium Web';-inkscape-font-specification:TitilliumWeb-SemiBold;writing-mode:lr-tb;fill:#155e7f;fill-opacity:1;fill-rule:nonzero;stroke:none"
       class="dimensionsText"
       id="text6013"><tspan
         x="0 21.84 43.68 53.000999 74.841003 90.908997 112.905 134.745 156.58501"
         y="0"
         sodipodi:role="line"
         id="tspan5096">33.5”x80”</tspan></text>
<g
       id="g5128"><g
         id="g5130"
         clip-path="url(#clipPath5134)"><path
           d="M 412.309,420 H 224.914 v 414.431 h 187.395 z"
           style="fill:none;stroke:#2ba9cb;stroke-width:3;stroke-linecap:butt;stroke-linejoin:miter;stroke-miterlimit:10;stroke-dasharray:none;stroke-opacity:1"
           id="path5136"
           inkscape:connector-curvature="0" /><g
           id="g5138"
           transform="translate(219.6309,853.8994)"><path
             d="M 0,0 H 194.981"
             style="fill:none;stroke:#2ba9cb;stroke-width:2;stroke-linecap:butt;stroke-linejoin:miter;stroke-miterlimit:10;stroke-dasharray:none;stroke-opacity:1"
             id="path5140"
             inkscape:connector-curvature="0" /></g><g
           id="g5142"
           transform="translate(233.2988,844.2998)"><path
             d="M 0,0 C 0.297,0.465 0.159,1.084 -0.307,1.381 L -13.212,9.6 -0.307,17.818 c 0.466,0.297 0.604,0.916 0.307,1.381 -0.297,0.465 -0.918,0.6 -1.381,0.307 L -15.61,10.443 c -0.288,-0.183 -0.463,-0.502 -0.463,-0.843 0,-0.342 0.175,-0.661 0.463,-0.844 l 14.229,-9.063 c 0.166,-0.105 0.353,-0.156 0.536,-0.156 0.329,0 0.654,0.164 0.845,0.463"
             style="fill:#2ba9cb;fill-opacity:1;fill-rule:nonzero;stroke:none"
             id="path5144"
             inkscape:connector-curvature="0" /></g><g
           id="g5146"
           transform="translate(400.9443,844.2998)"><path
             d="M 0,0 C -0.297,0.465 -0.159,1.084 0.306,1.381 L 13.212,9.6 0.306,17.818 c -0.465,0.297 -0.603,0.916 -0.306,1.381 0.297,0.465 0.919,0.6 1.381,0.307 L 15.61,10.443 C 15.898,10.26 16.073,9.941 16.073,9.6 16.073,9.258 15.898,8.939 15.61,8.756 L 1.381,-0.307 C 1.215,-0.412 1.028,-0.463 0.845,-0.463 0.515,-0.463 0.19,-0.299 0,0"
             style="fill:#2ba9cb;fill-opacity:1;fill-rule:nonzero;stroke:none"
             id="path5148"
             inkscape:connector-curvature="0" /></g><g
           id="g5150"
           transform="translate(434.4102,832.0264)"><path
             d="M 0,0 -2.758,-412.191"
             style="fill:none;stroke:#2ba9cb;stroke-width:2;stroke-linecap:butt;stroke-linejoin:miter;stroke-miterlimit:10;stroke-dasharray:none;stroke-opacity:1"
             id="path5152"
             inkscape:connector-curvature="0" /></g><g
           id="g5154"
           transform="translate(424.7187,818.4224)"><path
             d="m 0,0 c 0.463,-0.3 1.082,-0.167 1.383,0.297 l 8.305,12.85 8.132,-12.96 c 0.293,-0.467 0.912,-0.609 1.379,-0.315 0.467,0.294 0.606,0.915 0.315,1.378 L 10.548,15.54 C 10.365,15.83 10.049,16.006 9.707,16.009 9.365,16.011 9.045,15.838 8.86,15.552 L -0.297,1.383 C -0.404,1.218 -0.456,1.032 -0.457,0.848 -0.459,0.518 -0.297,0.193 0,0"
             style="fill:#2ba9cb;fill-opacity:1;fill-rule:nonzero;stroke:none"
             id="path5156"
             inkscape:connector-curvature="0" /></g><g
           id="g5158"
           transform="translate(422.1445,433.5674)"><path
             d="m 0,0 c 0.467,0.294 1.086,0.152 1.379,-0.315 l 8.133,-12.96 8.304,12.849 c 0.3,0.464 0.92,0.598 1.383,0.298 0.463,-0.3 0.594,-0.923 0.297,-1.383 L 10.339,-15.68 c -0.185,-0.287 -0.505,-0.459 -0.847,-0.457 -0.342,0.002 -0.659,0.18 -0.841,0.469 l -8.966,14.29 C -0.42,-1.212 -0.469,-1.024 -0.469,-0.841 -0.466,-0.511 -0.3,-0.189 0,0"
             style="fill:#2ba9cb;fill-opacity:1;fill-rule:nonzero;stroke:none"
             id="path5160"
             inkscape:connector-curvature="0" /></g><g
           id="g5162"
           transform="translate(350.6533,725.061)"><path
             d="m 0,0 h -65.321 c -1.237,0 -2.242,-1.006 -2.242,-2.248 v -15.417 c 0,-1.244 1.005,-2.247 2.242,-2.247 h 20.462 c 1.241,0 2.248,-1.004 2.248,-2.244 V -79.1 c 0,-1.244 1.003,-2.252 2.243,-2.252 h 15.419 c 1.241,0 2.245,1.008 2.245,2.252 v 56.944 c 0,1.24 1.004,2.244 2.248,2.244 H 0 c 1.243,0 2.247,1.003 2.247,2.247 V -2.248 C 2.247,-1.006 1.243,0 0,0"
             style="fill:#ea8826;fill-opacity:1;fill-rule:nonzero;stroke:none"
             id="path5164"
             inkscape:connector-curvature="0" /></g><g
           id="g5166"
           transform="translate(308.0312,755.7026)"><path
             d="m 0,0 v -15.407 c 0,-1.242 1.002,-2.244 2.245,-2.244 h 15.418 c 1.242,0 2.245,1.002 2.245,2.244 V 0 c 0,1.244 -1.003,2.252 -2.245,2.252 H 2.245 C 1.002,2.252 0,1.244 0,0"
             style="fill:#ea8826;fill-opacity:1;fill-rule:nonzero;stroke:none"
             id="path5168"
             inkscape:connector-curvature="0" /></g><g
           id="g5170"
           transform="translate(296.6406,619.2227)"><path
             d="m 0,0 c 1.721,3.045 4.141,6.596 7.024,9.973 0.953,1.109 0.621,2.822 -0.693,3.478 -0.583,0.295 -1.169,0.586 -1.752,0.877 -14.228,7.051 -23.138,12.447 -23.965,25.926 -0.071,1.193 -1.043,2.133 -2.241,2.133 h -12.506 c -1.281,0 -2.303,-1.074 -2.246,-2.356 1.102,-24.9 19.715,-34.123 33.412,-40.906 0.009,-0.008 0.013,-0.008 0.023,-0.008 C -1.882,-1.416 -0.581,-1.039 0,0"
             style="fill:#ea8826;fill-opacity:1;fill-rule:nonzero;stroke:none"
             id="path5172"
             inkscape:connector-curvature="0" /></g><g
           id="g5174"
           transform="translate(360.9775,661.6094)"><path
             d="m 0,0 c -1.196,0 -2.165,-0.939 -2.237,-2.133 -0.834,-13.478 -9.742,-18.875 -23.965,-25.926 -5.313,-2.638 -10.934,-5.441 -15.485,-9.207 h -0.126 c -7.325,-5.783 -9.901,-11.459 -10.274,-22.578 -0.039,-1.263 0.979,-2.316 2.251,-2.316 h 13.524 c 1.204,0 2.182,0.949 2.241,2.158 0.189,3.934 1.272,8.299 7.417,12.51 0.053,0.039 0.118,0.078 0.175,0.115 2.134,1.234 4.685,2.563 7.82,4.115 13.695,6.783 32.305,16.006 33.41,40.907 C 14.811,-1.074 13.781,0 12.499,0 Z"
             style="fill:#ea8826;fill-opacity:1;fill-rule:nonzero;stroke:none"
             id="path5176"
             inkscape:connector-curvature="0" /></g></g></g><text
       transform="matrix(1,0,0,-1,253.1963,871.6855)"
       style="font-variant:normal;font-weight:normal;font-stretch:normal;font-size:30px;font-family:'Titillium Web';-inkscape-font-specification:TitilliumWeb-Regular;writing-mode:lr-tb;fill:#155e7f;fill-opacity:1;fill-rule:nonzero;stroke:none"
       id="text5184"><tspan
         x="0 16.799999 33.599998 40.080002 56.880001 68.190002 74.790001 97.650002 104.22 120.09 130.62"
         y="0"
         sodipodi:role="line"
         id="tspan5178">33.5” width</tspan><tspan
         x="196.23 213.03 229.83 241.14"
         y="243.81"
         sodipodi:role="line"
         id="tspan5180">80” </tspan><tspan
         x="196.23 212.34 227.49001 234.06 249.48 265.5"
         y="279.81"
         sodipodi:role="line"
         id="tspan5182">height</tspan></text>
</g></svg>