<?xml version="1.0" encoding="UTF-8" standalone="no"?>
<!-- Created with Inkscape (http://www.inkscape.org/) -->

<svg
   xmlns:dc="http://purl.org/dc/elements/1.1/"
   xmlns:cc="http://creativecommons.org/ns#"
   xmlns:rdf="http://www.w3.org/1999/02/22-rdf-syntax-ns#"
   xmlns:svg="http://www.w3.org/2000/svg"
   xmlns="http://www.w3.org/2000/svg"
   xmlns:sodipodi="http://sodipodi.sourceforge.net/DTD/sodipodi-0.dtd"
   xmlns:inkscape="http://www.inkscape.org/namespaces/inkscape"
   version="1.1"
   id="svg2"
   xml:space="preserve"
   width="118.83191"
   height="139.11609"
   viewBox="0 0 118.83191 139.11607"
   sodipodi:docname="price_list.svg"
   inkscape:version="0.92.2 (5c3e80d, 2017-08-06)"><metadata
     id="metadata8"><rdf:RDF><cc:Work
         rdf:about=""><dc:format>image/svg+xml</dc:format><dc:type
           rdf:resource="http://purl.org/dc/dcmitype/StillImage" /><dc:title /></cc:Work></rdf:RDF></metadata><defs
     id="defs6"><clipPath
       clipPathUnits="userSpaceOnUse"
       id="clipPath20"><path
         d="m 8.74,1334 c -4.586,-1.459 -7.223,-3.772 -8.74,-7.115 v 0 V 8.28 C 2.786,1.842 9.137,2.002 23.611,2.002 v 0 l 693.217,0.136 c 30.995,-0.136 30.87,-0.636 30.87,36.028 v 0 l 0.125,1265.701 c 0,17.266 -2.448,26.499 -13.715,30.133 v 0 z"
         id="path18"
         inkscape:connector-curvature="0" /></clipPath><clipPath
       clipPathUnits="userSpaceOnUse"
       id="clipPath40"><path
         d="M 0,1334 H 750 V 0 H 0 Z"
         id="path38"
         inkscape:connector-curvature="0" /></clipPath><clipPath
       clipPathUnits="userSpaceOnUse"
       id="clipPath56"><path
         d="M 0,1334 H 750 V 0 H 0 Z"
         id="path54"
         inkscape:connector-curvature="0" /></clipPath><clipPath
       clipPathUnits="userSpaceOnUse"
       id="clipPath116"><path
         d="M 0,1334 H 750 V 0 H 0 Z"
         id="path114"
         inkscape:connector-curvature="0" /></clipPath><clipPath
       clipPathUnits="userSpaceOnUse"
       id="clipPath150"><path
         d="M 0,1334 H 750 V 0 H 0 Z"
         id="path148"
         inkscape:connector-curvature="0" /></clipPath><clipPath
       clipPathUnits="userSpaceOnUse"
       id="clipPath198"><path
         d="M 0,1334 H 750 V 0 H 0 Z"
         id="path196"
         inkscape:connector-curvature="0" /></clipPath><clipPath
       clipPathUnits="userSpaceOnUse"
       id="clipPath258"><path
         d="M 0,1334 H 750 V 0 H 0 Z"
         id="path256"
         inkscape:connector-curvature="0" /></clipPath><clipPath
       clipPathUnits="userSpaceOnUse"
       id="clipPath348"><path
         d="M 0,1334 H 750 V 0 H 0 Z"
         id="path346"
         inkscape:connector-curvature="0" /></clipPath><clipPath
       clipPathUnits="userSpaceOnUse"
       id="clipPath448"><path
         d="M 0,1334 H 750 V 0 H 0 Z"
         id="path446"
         inkscape:connector-curvature="0" /></clipPath><clipPath
       clipPathUnits="userSpaceOnUse"
       id="clipPath514"><path
         d="M 0,1334 H 750 V 0 H 0 Z"
         id="path512"
         inkscape:connector-curvature="0" /></clipPath><clipPath
       clipPathUnits="userSpaceOnUse"
       id="clipPath574"><path
         d="M 0,1334 H 750 V 0 H 0 Z"
         id="path572"
         inkscape:connector-curvature="0" /></clipPath><clipPath
       clipPathUnits="userSpaceOnUse"
       id="clipPath668"><path
         d="M 0,1334 H 750 V 0 H 0 Z"
         id="path666"
         inkscape:connector-curvature="0" /></clipPath></defs><sodipodi:namedview
     pagecolor="#ffffff"
     bordercolor="#666666"
     borderopacity="1"
     objecttolerance="10"
     gridtolerance="10"
     guidetolerance="10"
     inkscape:pageopacity="0"
     inkscape:pageshadow="2"
     inkscape:window-width="1920"
     inkscape:window-height="1017"
     id="namedview4"
     showgrid="false"
     fit-margin-top="0"
     fit-margin-left="0"
     fit-margin-right="0"
     fit-margin-bottom="0"
     inkscape:zoom="0.7505721"
     inkscape:cx="335.27978"
     inkscape:cy="378.72355"
     inkscape:window-x="-8"
     inkscape:window-y="1072"
     inkscape:window-maximized="1"
     inkscape:current-layer="g10" /><g
     id="g10"
     inkscape:groupmode="layer"
     inkscape:label="Price List Icon"
     transform="matrix(1.3333333,0,0,-1.3333333,-145.38489,460.4863)"><g
       id="g662"><g
         id="g664"
         clip-path="url(#clipPath668)"><g
           id="g690"
           transform="translate(135.5898,278.4199)"><path
             d="m 0,0 c 1.591,0.418 3.326,0.555 4.709,1.32 1.765,0.981 3.537,2.088 4.605,4.022 0.952,1.73 1.874,3.437 1.999,5.435 0.146,2.307 -0.67,4.33 -1.809,6.328 -1.934,3.401 -5.117,4.54 -8.633,5.143 -2.264,0.389 -4.439,-0.26 -6.503,-1.057 -4.102,-1.586 -5.843,-4.992 -6.507,-9.082 -0.269,-1.642 0.414,-3.101 0.924,-4.65 1.076,-3.268 3.451,-5.146 6.318,-6.455 C -3.453,0.342 -1.711,0.328 0,0 m 37.133,-24.674 c 2.625,0.184 4.992,0.68 7.154,2.586 2.515,2.223 3.692,4.934 4.154,8.025 0.168,1.139 -0.457,2.397 -0.705,3.604 -0.949,4.67 -5.518,7.039 -9.172,7.592 -4.533,0.687 -8.423,-0.959 -11.195,-4.662 -1.483,-1.977 -2.539,-4.266 -2.31,-6.85 0.197,-2.26 1.182,-4.273 2.654,-5.955 1.045,-1.199 2.257,-2.338 3.601,-3.168 1.733,-1.068 3.757,-1.352 5.819,-1.172 M 36.105,1.115 c 3.883,-0.117 7.406,1.582 9.644,4.746 1.405,1.994 2.44,4.323 2.173,6.879 -0.147,1.418 -0.559,2.856 -1.11,4.176 -0.568,1.365 -1.277,2.74 -2.636,3.564 -1.52,0.92 -3.065,1.7 -4.815,2.217 -2.865,0.854 -5.507,0.407 -8.142,-0.619 C 30.337,21.736 29.493,21.23 28.732,20.662 27.4,19.668 26.405,18.393 25.68,16.861 24.988,15.406 24.361,13.975 24.318,12.332 24.282,10.895 24.547,9.551 25.315,8.33 26.182,6.955 26.848,5.336 28.02,4.295 30.35,2.221 33.064,0.732 36.105,1.115 M -0.238,-25.566 c 3.105,0.066 5.615,0.531 7.916,2.681 2.255,2.106 3.762,4.571 4.082,7.623 0.344,3.289 -1.101,5.969 -3.301,8.301 -1.881,1.996 -4.316,2.99 -6.924,3.283 -3.853,0.434 -7.204,-0.828 -9.98,-3.646 -2.24,-2.281 -2.893,-5.112 -2.987,-8.106 -0.027,-0.931 0.551,-1.902 0.942,-2.818 0.443,-1.043 0.813,-2.191 1.523,-3.035 2.424,-2.887 5.455,-4.613 8.729,-4.283 m 17.329,56.06 c 7.475,0.176 14.952,0.406 22.428,0.494 2.647,0.032 5.045,0.475 7.335,1.92 2.58,1.629 4.086,4.086 4.154,6.817 0.101,4.164 0.759,8.457 -0.873,12.523 -0.313,0.779 -0.603,1.631 -1.137,2.244 -2.014,2.313 -4.756,3.391 -7.685,3.34 -15.6,-0.262 -31.198,-0.672 -46.794,-1.068 -1.553,-0.041 -3.095,-0.366 -4.646,-0.528 -2.127,-0.222 -3.834,-1.254 -5.24,-2.781 -1.408,-1.529 -2.293,-3.271 -2.169,-5.469 0.158,-2.836 0.158,-5.677 0.245,-8.515 0.057,-1.889 0.424,-3.598 1.67,-5.194 2.217,-2.838 5.011,-4.379 8.56,-4.324 8.051,0.121 16.101,0.354 24.152,0.541 m -0.439,34.658 c 11.211,0.262 22.426,0.524 33.637,0.791 1.586,0.039 2.945,-0.525 4.195,-1.443 0.483,-0.354 0.987,-0.682 1.455,-1.053 2.219,-1.754 3.325,-3.97 3.395,-6.879 0.23,-9.482 0.654,-18.963 0.908,-28.443 0.482,-17.682 0.903,-35.363 1.328,-53.043 0.088,-3.684 -1.804,-6.318 -4.781,-8.18 -2.117,-1.326 -4.498,-1.871 -7.055,-1.923 -21.132,-0.446 -42.261,-1.049 -63.394,-1.37 -3.598,-0.054 -6.815,1.582 -8.848,5.01 -1.23,2.08 -1.617,4.233 -1.652,6.569 -0.317,19.513 -0.652,39.023 -0.994,58.539 -0.127,7.222 -0.356,14.445 -0.397,21.668 -0.016,2.871 1.363,5.205 3.727,6.875 0.97,0.687 1.986,1.335 3.047,1.871 0.478,0.24 1.117,0.201 1.685,0.214 11.248,0.27 22.495,0.532 33.744,0.797"
             style="fill:#ffffff;fill-opacity:1;fill-rule:evenodd;stroke:none"
             id="path692"
             inkscape:connector-curvature="0" /></g><g
           id="g694"
           transform="translate(135.5898,278.4199)"><path
             d="m 0,0 c 1.591,0.418 3.326,0.555 4.709,1.32 1.765,0.981 3.537,2.088 4.605,4.022 0.952,1.73 1.874,3.437 1.999,5.435 0.146,2.307 -0.67,4.33 -1.809,6.328 -1.934,3.401 -5.117,4.54 -8.633,5.143 -2.264,0.389 -4.439,-0.26 -6.503,-1.057 -4.102,-1.586 -5.843,-4.992 -6.507,-9.082 -0.269,-1.642 0.414,-3.101 0.924,-4.65 1.076,-3.268 3.451,-5.146 6.318,-6.455 C -3.453,0.342 -1.711,0.328 0,0 Z m 37.133,-24.674 c 2.625,0.184 4.992,0.68 7.154,2.586 2.515,2.223 3.692,4.934 4.154,8.025 0.168,1.139 -0.457,2.397 -0.705,3.604 -0.949,4.67 -5.518,7.039 -9.172,7.592 -4.533,0.687 -8.423,-0.959 -11.195,-4.662 -1.483,-1.977 -2.539,-4.266 -2.31,-6.85 0.197,-2.26 1.182,-4.273 2.654,-5.955 1.045,-1.199 2.257,-2.338 3.601,-3.168 1.733,-1.068 3.757,-1.352 5.819,-1.172 z M 36.105,1.115 c 3.883,-0.117 7.406,1.582 9.644,4.746 1.405,1.994 2.44,4.323 2.173,6.879 -0.147,1.418 -0.559,2.856 -1.11,4.176 -0.568,1.365 -1.277,2.74 -2.636,3.564 -1.52,0.92 -3.065,1.7 -4.815,2.217 -2.865,0.854 -5.507,0.407 -8.142,-0.619 C 30.337,21.736 29.493,21.23 28.732,20.662 27.4,19.668 26.405,18.393 25.68,16.861 24.988,15.406 24.361,13.975 24.318,12.332 24.282,10.895 24.547,9.551 25.315,8.33 26.182,6.955 26.848,5.336 28.02,4.295 30.35,2.221 33.064,0.732 36.105,1.115 Z M -0.238,-25.566 c 3.105,0.066 5.615,0.531 7.916,2.681 2.255,2.106 3.762,4.571 4.082,7.623 0.344,3.289 -1.101,5.969 -3.301,8.301 -1.881,1.996 -4.316,2.99 -6.924,3.283 -3.853,0.434 -7.204,-0.828 -9.98,-3.646 -2.24,-2.281 -2.893,-5.112 -2.987,-8.106 -0.027,-0.931 0.551,-1.902 0.942,-2.818 0.443,-1.043 0.813,-2.191 1.523,-3.035 2.424,-2.887 5.455,-4.613 8.729,-4.283 z m 17.329,56.06 c 7.475,0.176 14.952,0.406 22.428,0.494 2.647,0.032 5.045,0.475 7.335,1.92 2.58,1.629 4.086,4.086 4.154,6.817 0.101,4.164 0.759,8.457 -0.873,12.523 -0.313,0.779 -0.603,1.631 -1.137,2.244 -2.014,2.313 -4.756,3.391 -7.685,3.34 -15.6,-0.262 -31.198,-0.672 -46.794,-1.068 -1.553,-0.041 -3.095,-0.366 -4.646,-0.528 -2.127,-0.222 -3.834,-1.254 -5.24,-2.781 -1.408,-1.529 -2.293,-3.271 -2.169,-5.469 0.158,-2.836 0.158,-5.677 0.245,-8.515 0.057,-1.889 0.424,-3.598 1.67,-5.194 2.217,-2.838 5.011,-4.379 8.56,-4.324 8.051,0.121 16.101,0.354 24.152,0.541 z m -0.439,34.658 c 11.211,0.262 22.426,0.524 33.637,0.791 1.586,0.039 2.945,-0.525 4.195,-1.443 0.483,-0.354 0.987,-0.682 1.455,-1.053 2.219,-1.754 3.325,-3.97 3.395,-6.879 0.23,-9.482 0.654,-18.963 0.908,-28.443 0.482,-17.682 0.903,-35.363 1.328,-53.043 0.088,-3.684 -1.804,-6.318 -4.781,-8.18 -2.117,-1.326 -4.498,-1.871 -7.055,-1.923 -21.132,-0.446 -42.261,-1.049 -63.394,-1.37 -3.598,-0.054 -6.815,1.582 -8.848,5.01 -1.23,2.08 -1.617,4.233 -1.652,6.569 -0.317,19.513 -0.652,39.023 -0.994,58.539 -0.127,7.222 -0.356,14.445 -0.397,21.668 -0.016,2.871 1.363,5.205 3.727,6.875 0.97,0.687 1.986,1.335 3.047,1.871 0.478,0.24 1.117,0.201 1.685,0.214 11.248,0.27 22.495,0.532 33.744,0.797 z"
             style="fill:none;stroke:#155e7f;stroke-width:2;stroke-linecap:butt;stroke-linejoin:miter;stroke-miterlimit:10;stroke-dasharray:none;stroke-opacity:1"
             id="path696"
             inkscape:connector-curvature="0" /></g><g
           id="g698"
           transform="translate(152.6797,308.916)"><path
             d="m 0,0 c -8.05,-0.189 -16.1,-0.422 -24.15,-0.543 -3.55,-0.055 -6.344,1.486 -8.561,4.324 -1.246,1.596 -1.613,3.305 -1.67,5.194 -0.087,2.838 -0.087,5.679 -0.245,8.515 -0.124,2.197 0.761,3.94 2.169,5.469 1.406,1.527 3.113,2.559 5.24,2.781 1.551,0.162 3.093,0.487 4.646,0.528 15.596,0.396 31.194,0.806 46.794,1.068 2.929,0.051 5.672,-1.027 7.685,-3.34 0.534,-0.613 0.824,-1.465 1.137,-2.244 C 34.677,17.686 34.02,13.393 33.918,9.229 33.851,6.498 32.344,4.041 29.764,2.412 27.475,0.967 25.076,0.523 22.429,0.492 14.953,0.404 7.477,0.174 0,0"
             style="fill:#155e7f;fill-opacity:1;fill-rule:evenodd;stroke:none"
             id="path700"
             inkscape:connector-curvature="0" /></g><g
           id="g702"
           transform="translate(135.6836,262.6582)"><path
             d="M 0,0 C 1.759,0.039 3.518,0.062 5.275,0.131 6.119,0.162 7.223,0.078 7.2,1.303 7.181,2.486 6.086,2.34 5.299,2.328 1.781,2.283 -1.736,2.189 -5.252,2.102 -6.104,2.08 -7.141,1.967 -7.105,0.932 -7.072,-0.113 -5.996,-0.119 -5.17,-0.113 -3.445,-0.1 -1.723,-0.041 0,0 m -0.332,-9.805 c -3.273,-0.33 -6.305,1.397 -8.729,4.284 -0.71,0.843 -1.08,1.992 -1.523,3.035 -0.391,0.916 -0.969,1.886 -0.941,2.818 0.093,2.994 0.747,5.824 2.986,8.106 2.776,2.818 6.127,4.08 9.98,3.646 C 4.049,11.791 6.484,10.797 8.365,8.801 10.565,6.469 12.01,3.789 11.666,0.5 11.347,-2.553 9.839,-5.018 7.584,-7.123 5.283,-9.273 2.773,-9.738 -0.332,-9.805"
             style="fill:#155e7f;fill-opacity:1;fill-rule:evenodd;stroke:none"
             id="path704"
             inkscape:connector-curvature="0" /></g><g
           id="g706"
           transform="translate(170.75,287.2402)"><path
             d="M 0,0 C 0.018,-0.754 0.018,-1.328 0.046,-1.9 0.08,-2.572 0.4,-2.988 1.114,-2.982 c 0.74,0.003 1.016,0.47 1.014,1.125 0,0.826 -0.042,1.65 -0.075,2.474 C 1.982,2.213 2.432,2.725 4.058,2.822 4.992,2.881 5.94,2.797 6.85,2.949 7.27,3.02 7.887,3.469 7.936,3.814 8.039,4.525 7.383,4.582 6.807,4.566 5.764,4.535 4.724,4.498 3.68,4.504 2.236,4.514 1.92,4.811 1.858,6.273 1.824,7.059 1.858,7.855 1.911,8.641 1.966,9.424 1.807,10.033 0.885,10.061 -0.033,10.086 -0.256,9.48 -0.226,8.701 -0.189,7.84 -0.121,6.979 -0.121,6.119 -0.123,4.711 -0.429,4.41 -1.816,4.363 -2.782,4.33 -3.757,4.318 -4.723,4.289 -5.312,4.271 -5.951,4.268 -5.91,3.422 -5.871,2.678 -5.307,2.633 -4.736,2.643 -3.768,2.656 -2.799,2.689 -1.828,2.686 -0.525,2.68 0.054,2.072 0.016,0.791 0.007,0.469 0.002,0.146 0,0 m 0.945,-7.705 c -3.041,-0.383 -5.756,1.105 -8.086,3.18 -1.172,1.041 -1.838,2.66 -2.704,4.035 -0.768,1.22 -1.033,2.564 -0.997,4.002 0.043,1.642 0.67,3.074 1.362,4.529 0.725,1.531 1.72,2.807 3.052,3.801 0.761,0.568 1.605,1.074 2.487,1.416 2.635,1.025 5.277,1.472 8.142,0.619 C 5.951,13.359 7.496,12.58 9.016,11.66 10.375,10.836 11.084,9.461 11.651,8.096 12.203,6.775 12.615,5.338 12.762,3.92 13.029,1.363 11.994,-0.965 10.589,-2.959 8.351,-6.123 4.828,-7.822 0.945,-7.705"
             style="fill:#155e7f;fill-opacity:1;fill-rule:evenodd;stroke:none"
             id="path708"
             inkscape:connector-curvature="0" /></g><g
           id="g710"
           transform="translate(172.4072,265.8652)"><path
             d="M 0,0 C 0,0.006 -0.002,0.01 0,0.014 1.862,0.057 3.724,0.104 5.589,0.141 6.36,0.156 6.978,0.414 6.985,1.273 6.994,2.154 6.269,2.295 5.612,2.285 1.851,2.227 -1.912,2.141 -5.673,2.027 -6.39,2.004 -7.175,1.873 -7.091,0.83 -7.011,-0.133 -6.298,-0.143 -5.589,-0.127 -3.727,-0.09 -1.862,-0.043 0,0 m 0.048,-2.563 v -0.011 c -2.008,-0.049 -4.014,-0.059 -6.016,-0.172 -0.363,-0.022 -1.011,-0.508 -0.984,-0.699 0.064,-0.457 0.381,-0.957 0.746,-1.258 0.25,-0.207 0.752,-0.154 1.139,-0.149 2.437,0.043 4.874,0.108 7.31,0.165 1.147,0.025 2.295,0.021 3.439,0.083 0.796,0.043 1.442,0.477 1.411,1.301 C 7.062,-2.467 6.329,-2.406 5.637,-2.428 3.774,-2.482 1.91,-2.52 0.048,-2.563 m 0.267,-9.556 c -2.061,-0.18 -4.086,0.103 -5.818,1.172 -1.345,0.83 -2.557,1.968 -3.601,3.168 -1.472,1.681 -2.458,3.695 -2.655,5.955 -0.228,2.584 0.827,4.873 2.311,6.849 2.771,3.704 6.662,5.35 11.195,4.663 C 5.4,9.135 9.97,6.766 10.919,2.096 11.167,0.889 11.792,-0.369 11.624,-1.508 11.161,-4.6 9.984,-7.311 7.47,-9.533 5.308,-11.439 2.94,-11.936 0.315,-12.119"
             style="fill:#155e7f;fill-opacity:1;fill-rule:evenodd;stroke:none"
             id="path712"
             inkscape:connector-curvature="0" /></g><g
           id="g714"
           transform="translate(141.0371,294.5293)"><path
             d="M 0,0 C -0.444,0.301 -0.793,0.713 -1.154,0.73 -1.607,0.75 -2.16,0.545 -2.514,0.252 -3.395,-0.48 -4.203,-1.305 -5.01,-2.119 c -0.51,-0.516 -1.025,-0.652 -1.607,-0.166 -1.008,0.836 -1.985,1.715 -3.01,2.523 -0.672,0.53 -1.51,0.551 -2.07,-0.045 -0.617,-0.662 -0.139,-1.349 0.416,-1.869 0.857,-0.797 1.723,-1.592 2.629,-2.338 0.623,-0.509 0.64,-0.988 0.105,-1.531 -0.895,-0.91 -1.756,-1.855 -2.707,-2.699 -0.682,-0.6 -0.799,-1.221 -0.256,-1.865 0.588,-0.698 1.291,-0.684 1.946,-0.002 0.593,0.617 1.23,1.191 1.796,1.832 0.979,1.103 2.434,1.941 3.762,0.185 0.512,-0.676 1.227,-1.207 1.863,-1.785 0.571,-0.519 1.213,-0.68 1.829,-0.121 0.557,0.506 0.466,1.402 -0.151,2.008 -0.894,0.875 -1.785,1.756 -2.697,2.613 -0.539,0.502 -0.543,0.912 0.002,1.438 0.775,0.746 1.51,1.537 2.209,2.357 C -0.617,-1.187 -0.406,-0.689 0,0 m -5.447,-16.109 c -1.711,0.328 -3.453,0.341 -4.898,1.004 -2.866,1.308 -5.241,3.187 -6.317,6.455 -0.51,1.548 -1.193,3.007 -0.924,4.65 0.664,4.09 2.404,7.496 6.507,9.082 2.063,0.797 4.239,1.445 6.503,1.057 C -1.061,5.535 2.123,4.396 4.057,0.996 5.195,-1.002 6.012,-3.025 5.865,-5.332 5.74,-7.33 4.818,-9.037 3.867,-10.768 c -1.068,-1.933 -2.841,-3.041 -4.605,-4.021 -1.383,-0.766 -3.118,-0.902 -4.709,-1.32"
             style="fill:#155e7f;fill-opacity:1;fill-rule:evenodd;stroke:none"
             id="path716"
             inkscape:connector-curvature="0" /></g><g
           id="g718"
           transform="translate(135.6816,262.6582)"><path
             d="m 0,0 c -1.721,-0.041 -3.443,-0.1 -5.168,-0.113 -0.826,-0.006 -1.902,0 -1.936,1.045 -0.035,1.035 1.002,1.148 1.854,1.17 C -1.734,2.189 1.783,2.283 5.301,2.328 6.088,2.34 7.183,2.486 7.202,1.303 7.225,0.078 6.121,0.162 5.277,0.131 3.52,0.062 1.761,0.039 0,0"
             style="fill:#ffffff;fill-opacity:1;fill-rule:evenodd;stroke:none"
             id="path720"
             inkscape:connector-curvature="0" /></g><g
           id="g722"
           transform="translate(135.6816,262.6582)"><path
             d="m 0,0 c -1.721,-0.041 -3.443,-0.1 -5.168,-0.113 -0.826,-0.006 -1.902,0 -1.936,1.045 -0.035,1.035 1.002,1.148 1.854,1.17 C -1.734,2.189 1.783,2.283 5.301,2.328 6.088,2.34 7.183,2.486 7.202,1.303 7.225,0.078 6.121,0.162 5.277,0.131 3.52,0.062 1.761,0.039 0,0 Z"
             style="fill:none;stroke:#155e7f;stroke-width:1;stroke-linecap:butt;stroke-linejoin:miter;stroke-miterlimit:10;stroke-dasharray:none;stroke-opacity:1"
             id="path724"
             inkscape:connector-curvature="0" /></g><g
           id="g726"
           transform="translate(170.75,287.2402)"><path
             d="m 0,0 c 0.002,0.146 0.007,0.469 0.016,0.791 0.038,1.281 -0.541,1.889 -1.844,1.895 -0.971,0.003 -1.94,-0.03 -2.908,-0.043 -0.571,-0.01 -1.135,0.035 -1.174,0.779 -0.041,0.846 0.598,0.849 1.187,0.867 0.966,0.029 1.941,0.041 2.907,0.074 1.387,0.047 1.693,0.348 1.695,1.756 0,0.86 -0.068,1.721 -0.105,2.582 -0.03,0.779 0.193,1.385 1.111,1.36 C 1.807,10.033 1.966,9.424 1.911,8.641 1.858,7.855 1.824,7.059 1.858,6.273 1.92,4.811 2.236,4.514 3.68,4.504 4.724,4.498 5.764,4.535 6.807,4.566 7.383,4.582 8.039,4.525 7.936,3.814 7.887,3.469 7.27,3.02 6.85,2.949 5.94,2.797 4.992,2.881 4.058,2.822 2.432,2.725 1.982,2.213 2.053,0.617 2.086,-0.207 2.128,-1.031 2.128,-1.857 2.13,-2.512 1.854,-2.979 1.114,-2.982 0.4,-2.988 0.08,-2.572 0.046,-1.9 0.018,-1.328 0.018,-0.754 0,0"
             style="fill:#ffffff;fill-opacity:1;fill-rule:evenodd;stroke:none"
             id="path728"
             inkscape:connector-curvature="0" /></g><g
           id="g730"
           transform="translate(170.75,287.2402)"><path
             d="m 0,0 c 0.002,0.146 0.007,0.469 0.016,0.791 0.038,1.281 -0.541,1.889 -1.844,1.895 -0.971,0.003 -1.94,-0.03 -2.908,-0.043 -0.571,-0.01 -1.135,0.035 -1.174,0.779 -0.041,0.846 0.598,0.849 1.187,0.867 0.966,0.029 1.941,0.041 2.907,0.074 1.387,0.047 1.693,0.348 1.695,1.756 0,0.86 -0.068,1.721 -0.105,2.582 -0.03,0.779 0.193,1.385 1.111,1.36 C 1.807,10.033 1.966,9.424 1.911,8.641 1.858,7.855 1.824,7.059 1.858,6.273 1.92,4.811 2.236,4.514 3.68,4.504 4.724,4.498 5.764,4.535 6.807,4.566 7.383,4.582 8.039,4.525 7.936,3.814 7.887,3.469 7.27,3.02 6.85,2.949 5.94,2.797 4.992,2.881 4.058,2.822 2.432,2.725 1.982,2.213 2.053,0.617 2.086,-0.207 2.128,-1.031 2.128,-1.857 2.13,-2.512 1.854,-2.979 1.114,-2.982 0.4,-2.988 0.08,-2.572 0.046,-1.9 0.018,-1.328 0.018,-0.754 0,0 Z"
             style="fill:none;stroke:#155e7f;stroke-width:1;stroke-linecap:butt;stroke-linejoin:miter;stroke-miterlimit:10;stroke-dasharray:none;stroke-opacity:1"
             id="path732"
             inkscape:connector-curvature="0" /></g><g
           id="g734"
           transform="translate(172.4551,263.3027)"><path
             d="M 0,0 C 1.862,0.043 3.727,0.08 5.589,0.135 6.281,0.156 7.014,0.096 7.045,-0.74 7.076,-1.564 6.43,-1.998 5.634,-2.041 4.49,-2.104 3.342,-2.1 2.195,-2.125 -0.241,-2.182 -2.678,-2.246 -5.115,-2.289 -5.502,-2.295 -6.004,-2.348 -6.254,-2.141 -6.619,-1.84 -6.936,-1.34 -7,-0.883 c -0.027,0.192 0.621,0.678 0.984,0.699 2.002,0.114 4.008,0.123 6.016,0.172 z"
             style="fill:#ffffff;fill-opacity:1;fill-rule:evenodd;stroke:none"
             id="path736"
             inkscape:connector-curvature="0" /></g><g
           id="g738"
           transform="translate(172.4551,263.3027)"><path
             d="M 0,0 C 1.862,0.043 3.727,0.08 5.589,0.135 6.281,0.156 7.014,0.096 7.045,-0.74 7.076,-1.564 6.43,-1.998 5.634,-2.041 4.49,-2.104 3.342,-2.1 2.195,-2.125 -0.241,-2.182 -2.678,-2.246 -5.115,-2.289 -5.502,-2.295 -6.004,-2.348 -6.254,-2.141 -6.619,-1.84 -6.936,-1.34 -7,-0.883 c -0.027,0.192 0.621,0.678 0.984,0.699 2.002,0.114 4.008,0.123 6.016,0.172 z"
             style="fill:none;stroke:#155e7f;stroke-width:1;stroke-linecap:butt;stroke-linejoin:miter;stroke-miterlimit:10;stroke-dasharray:none;stroke-opacity:1"
             id="path740"
             inkscape:connector-curvature="0" /></g><g
           id="g742"
           transform="translate(172.4072,265.8652)"><path
             d="M 0,0 C -1.862,-0.043 -3.727,-0.09 -5.589,-0.127 -6.298,-0.143 -7.011,-0.133 -7.091,0.83 -7.175,1.873 -6.39,2.004 -5.673,2.027 -1.912,2.141 1.851,2.227 5.612,2.285 6.269,2.295 6.994,2.154 6.985,1.273 6.978,0.414 6.36,0.156 5.589,0.141 3.724,0.104 1.862,0.057 0,0.014 -0.002,0.01 0,0.006 0,0"
             style="fill:#ffffff;fill-opacity:1;fill-rule:evenodd;stroke:none"
             id="path744"
             inkscape:connector-curvature="0" /></g><g
           id="g746"
           transform="translate(172.4072,265.8652)"><path
             d="M 0,0 C -1.862,-0.043 -3.727,-0.09 -5.589,-0.127 -6.298,-0.143 -7.011,-0.133 -7.091,0.83 -7.175,1.873 -6.39,2.004 -5.673,2.027 -1.912,2.141 1.851,2.227 5.612,2.285 6.269,2.295 6.994,2.154 6.985,1.273 6.978,0.414 6.36,0.156 5.589,0.141 3.724,0.104 1.862,0.057 0,0.014 -0.002,0.01 0,0.006 0,0 Z"
             style="fill:none;stroke:#155e7f;stroke-width:1;stroke-linecap:butt;stroke-linejoin:miter;stroke-miterlimit:10;stroke-dasharray:none;stroke-opacity:1"
             id="path748"
             inkscape:connector-curvature="0" /></g><g
           id="g750"
           transform="translate(141.0371,294.5293)"><path
             d="m 0,0 c -0.406,-0.689 -0.617,-1.187 -0.951,-1.584 -0.699,-0.82 -1.434,-1.611 -2.209,-2.357 -0.545,-0.526 -0.541,-0.936 -0.002,-1.438 0.912,-0.857 1.803,-1.738 2.697,-2.613 0.617,-0.606 0.708,-1.502 0.151,-2.008 -0.616,-0.559 -1.258,-0.398 -1.829,0.121 -0.636,0.578 -1.351,1.109 -1.863,1.785 -1.328,1.756 -2.783,0.918 -3.762,-0.185 -0.566,-0.641 -1.203,-1.215 -1.796,-1.832 -0.655,-0.682 -1.358,-0.696 -1.946,0.002 -0.543,0.644 -0.426,1.265 0.256,1.865 0.951,0.844 1.812,1.789 2.707,2.699 0.535,0.543 0.518,1.022 -0.105,1.531 -0.906,0.746 -1.772,1.541 -2.629,2.338 -0.555,0.52 -1.033,1.207 -0.416,1.869 0.56,0.596 1.398,0.575 2.07,0.045 1.025,-0.808 2.002,-1.687 3.01,-2.523 0.582,-0.486 1.097,-0.35 1.607,0.166 0.807,0.814 1.615,1.639 2.496,2.371 0.354,0.293 0.907,0.498 1.36,0.478 C -0.793,0.713 -0.444,0.301 0,0"
             style="fill:#ffffff;fill-opacity:1;fill-rule:evenodd;stroke:none"
             id="path752"
             inkscape:connector-curvature="0" /></g><g
           id="g754"
           transform="translate(141.0371,294.5293)"><path
             d="m 0,0 c -0.406,-0.689 -0.617,-1.187 -0.951,-1.584 -0.699,-0.82 -1.434,-1.611 -2.209,-2.357 -0.545,-0.526 -0.541,-0.936 -0.002,-1.438 0.912,-0.857 1.803,-1.738 2.697,-2.613 0.617,-0.606 0.708,-1.502 0.151,-2.008 -0.616,-0.559 -1.258,-0.398 -1.829,0.121 -0.636,0.578 -1.351,1.109 -1.863,1.785 -1.328,1.756 -2.783,0.918 -3.762,-0.185 -0.566,-0.641 -1.203,-1.215 -1.796,-1.832 -0.655,-0.682 -1.358,-0.696 -1.946,0.002 -0.543,0.644 -0.426,1.265 0.256,1.865 0.951,0.844 1.812,1.789 2.707,2.699 0.535,0.543 0.518,1.022 -0.105,1.531 -0.906,0.746 -1.772,1.541 -2.629,2.338 -0.555,0.52 -1.033,1.207 -0.416,1.869 0.56,0.596 1.398,0.575 2.07,0.045 1.025,-0.808 2.002,-1.687 3.01,-2.523 0.582,-0.486 1.097,-0.35 1.607,0.166 0.807,0.814 1.615,1.639 2.496,2.371 0.354,0.293 0.907,0.498 1.36,0.478 C -0.793,0.713 -0.444,0.301 0,0 Z"
             style="fill:none;stroke:#155e7f;stroke-width:1;stroke-linecap:butt;stroke-linejoin:miter;stroke-miterlimit:10;stroke-dasharray:none;stroke-opacity:1"
             id="path756"
             inkscape:connector-curvature="0" /></g></g></g></g></svg>