<?xml version="1.0" encoding="UTF-8" standalone="no"?>
<!-- Created with Inkscape (http://www.inkscape.org/) -->

<svg
   xmlns:dc="http://purl.org/dc/elements/1.1/"
   xmlns:cc="http://creativecommons.org/ns#"
   xmlns:rdf="http://www.w3.org/1999/02/22-rdf-syntax-ns#"
   xmlns:svg="http://www.w3.org/2000/svg"
   xmlns="http://www.w3.org/2000/svg"
   xmlns:xlink="http://www.w3.org/1999/xlink"
   xmlns:sodipodi="http://sodipodi.sourceforge.net/DTD/sodipodi-0.dtd"
   xmlns:inkscape="http://www.inkscape.org/namespaces/inkscape"
   version="1.1"
   id="svg2"
   xml:space="preserve"
   width="263.45334"
   height="148.22"
   viewBox="0 0 263.45334 148.22"
   sodipodi:docname="icon_posters.svg"
   inkscape:version="0.92.2 (5c3e80d, 2017-08-06)"><metadata
     id="metadata8"><rdf:RDF><cc:Work
         rdf:about=""><dc:format>image/svg+xml</dc:format><dc:type
           rdf:resource="http://purl.org/dc/dcmitype/StillImage" /><dc:title></dc:title></cc:Work></rdf:RDF></metadata><defs
     id="defs6"><clipPath
       clipPathUnits="userSpaceOnUse"
       id="clipPath20"><path
         d="M 29.281,1334 C 7.21,1334 1.485,1329.904 0,1319.114 v 0 V 12.765 C 1.477,0.465 6.325,0.012 22.241,0 v 0 h 2.9 L 718.358,0.137 C 749.354,0 749.228,-0.5 749.228,36.164 v 0 l 0.126,1265.704 c 0,23.331 -4.474,31.996 -29.134,31.996 v 0 z"
         id="path18"
         inkscape:connector-curvature="0" /></clipPath><clipPath
       clipPathUnits="userSpaceOnUse"
       id="clipPath42"><path
         d="M 0,1334 H 750 V 0 H 0 Z"
         id="path40"
         inkscape:connector-curvature="0" /></clipPath><clipPath
       clipPathUnits="userSpaceOnUse"
       id="clipPath90"><path
         d="M 0,1334 H 750 V 0 H 0 Z"
         id="path88"
         inkscape:connector-curvature="0" /></clipPath><clipPath
       clipPathUnits="userSpaceOnUse"
       id="clipPath150"><path
         d="M 0,1334 H 750 V 0 H 0 Z"
         id="path148"
         inkscape:connector-curvature="0" /></clipPath><clipPath
       clipPathUnits="userSpaceOnUse"
       id="clipPath240"><path
         d="M 0,1334 H 750 V 0 H 0 Z"
         id="path238"
         inkscape:connector-curvature="0" /></clipPath><clipPath
       clipPathUnits="userSpaceOnUse"
       id="clipPath356"><path
         d="M 0,1334 H 750 V 0 H 0 Z"
         id="path354"
         inkscape:connector-curvature="0" /></clipPath><clipPath
       clipPathUnits="userSpaceOnUse"
       id="clipPath392"><path
         d="M 0,1334 H 750 V 0 H 0 Z"
         id="path390"
         inkscape:connector-curvature="0" /></clipPath><clipPath
       clipPathUnits="userSpaceOnUse"
       id="clipPath408"><path
         d="M 0,1334 H 750 V 0 H 0 Z"
         id="path406"
         inkscape:connector-curvature="0" /></clipPath><clipPath
       clipPathUnits="userSpaceOnUse"
       id="clipPath438"><path
         d="M 0,1334 H 750 V 0 H 0 Z"
         id="path436"
         inkscape:connector-curvature="0" /></clipPath><clipPath
       clipPathUnits="userSpaceOnUse"
       id="clipPath516"><path
         d="M 0,1334 H 750 V 0 H 0 Z"
         id="path514"
         inkscape:connector-curvature="0" /></clipPath><clipPath
       clipPathUnits="userSpaceOnUse"
       id="clipPath590"><path
         d="M 0,1334 H 750 V 0 H 0 Z"
         id="path588"
         inkscape:connector-curvature="0" /></clipPath><clipPath
       clipPathUnits="userSpaceOnUse"
       id="clipPath690"><path
         d="M 0,1334 H 750 V 0 H 0 Z"
         id="path688"
         inkscape:connector-curvature="0" /></clipPath><clipPath
       clipPathUnits="userSpaceOnUse"
       id="clipPath718"><path
         d="m 476.135,810.504 c 0,-45.684 37.098,-82.718 82.863,-82.718 v 0 c 45.765,0 82.864,37.034 82.864,82.718 v 0 c 0,45.683 -37.099,82.718 -82.864,82.718 v 0 c -45.765,0 -82.863,-37.035 -82.863,-82.718"
         id="path716"
         inkscape:connector-curvature="0" /></clipPath><clipPath
       clipPathUnits="userSpaceOnUse"
       id="clipPath844"><path
         d="m 520.679,767.092 h 79.602 v -27.624 h -79.602 z"
         id="path842"
         inkscape:connector-curvature="0" /></clipPath><clipPath
       clipPathUnits="userSpaceOnUse"
       id="clipPath860"><path
         d="M 0,1334 H 750 V 0 H 0 Z"
         id="path858"
         inkscape:connector-curvature="0" /></clipPath><clipPath
       clipPathUnits="userSpaceOnUse"
       id="clipPath884"><path
         d="m 166.854,765.612 h 63.639 v -27.624 h -63.639 z"
         id="path882"
         inkscape:connector-curvature="0" /></clipPath><clipPath
       clipPathUnits="userSpaceOnUse"
       id="clipPath942"><path
         d="M 0,1334 H 750 V 0 H 0 Z"
         id="path940"
         inkscape:connector-curvature="0" /></clipPath><clipPath
       clipPathUnits="userSpaceOnUse"
       id="clipPath1014"><path
         d="M 0,1334 H 750 V 0 H 0 Z"
         id="path1012"
         inkscape:connector-curvature="0" /></clipPath></defs><sodipodi:namedview
     pagecolor="#ffffff"
     bordercolor="#666666"
     borderopacity="1"
     objecttolerance="10"
     gridtolerance="10"
     guidetolerance="10"
     inkscape:pageopacity="0"
     inkscape:pageshadow="2"
     inkscape:window-width="1920"
     inkscape:window-height="1017"
     id="namedview4"
     showgrid="false"
     fit-margin-top="0"
     fit-margin-left="0"
     fit-margin-right="0"
     fit-margin-bottom="0"
     inkscape:zoom="1.5011442"
     inkscape:cx="-45.82596"
     inkscape:cy="-114.30843"
     inkscape:window-x="-8"
     inkscape:window-y="-8"
     inkscape:window-maximized="1"
     inkscape:current-layer="g10" /><g
     id="g10"
     inkscape:groupmode="layer"
     inkscape:label="TUGBoat_iPhone01"
     transform="matrix(1.3333333,0,0,-1.3333333,-613.44532,1171.9226)"><g
       id="g712"
       inkscape:label="g712"><g
         id="g714"
         clip-path="url(#clipPath718)"><path
           d="m 657.174,768.277 h -196.59 v 110.165 h 196.59 z"
           style="fill:none;stroke:#125d7d;stroke-width:1;stroke-linecap:butt;stroke-linejoin:miter;stroke-miterlimit:10;stroke-dasharray:none;stroke-opacity:1"
           id="path720"
           inkscape:connector-curvature="0" /><path
           d="m 501.705,850.915 h -41.121 v 13.763 h 41.121 z"
           style="fill:#ffffff;fill-opacity:1;fill-rule:nonzero;stroke:#125d7d;stroke-width:1;stroke-linecap:butt;stroke-linejoin:miter;stroke-miterlimit:10;stroke-dasharray:none;stroke-opacity:1"
           id="path722"
           inkscape:connector-curvature="0" /><path
           d="m 542.834,850.915 h -41.129 v 13.763 h 41.129 z"
           style="fill:#ffffff;fill-opacity:1;fill-rule:nonzero;stroke:#125d7d;stroke-width:1;stroke-linecap:butt;stroke-linejoin:miter;stroke-miterlimit:10;stroke-dasharray:none;stroke-opacity:1"
           id="path724"
           inkscape:connector-curvature="0" /><path
           d="m 583.964,850.915 h -41.13 v 13.763 h 41.13 z"
           style="fill:#ffffff;fill-opacity:1;fill-rule:nonzero;stroke:#125d7d;stroke-width:1;stroke-linecap:butt;stroke-linejoin:miter;stroke-miterlimit:10;stroke-dasharray:none;stroke-opacity:1"
           id="path726"
           inkscape:connector-curvature="0" /><path
           d="m 625.087,850.915 h -41.123 v 13.763 h 41.123 z"
           style="fill:#ffffff;fill-opacity:1;fill-rule:nonzero;stroke:#125d7d;stroke-width:1;stroke-linecap:butt;stroke-linejoin:miter;stroke-miterlimit:10;stroke-dasharray:none;stroke-opacity:1"
           id="path728"
           inkscape:connector-curvature="0" /><path
           d="m 657.174,850.915 h -32.087 v 13.763 h 32.087 z"
           style="fill:#ffffff;fill-opacity:1;fill-rule:nonzero;stroke:#125d7d;stroke-width:1;stroke-linecap:butt;stroke-linejoin:miter;stroke-miterlimit:10;stroke-dasharray:none;stroke-opacity:1"
           id="path730"
           inkscape:connector-curvature="0" /><path
           d="m 522.268,837.155 h -41.125 v 13.759 h 41.125 z"
           style="fill:#ffffff;fill-opacity:1;fill-rule:nonzero;stroke:#125d7d;stroke-width:1;stroke-linecap:butt;stroke-linejoin:miter;stroke-miterlimit:10;stroke-dasharray:none;stroke-opacity:1"
           id="path732"
           inkscape:connector-curvature="0" /><path
           d="m 481.143,837.155 h -20.559 v 13.759 h 20.559 z"
           style="fill:#ffffff;fill-opacity:1;fill-rule:nonzero;stroke:#125d7d;stroke-width:1;stroke-linecap:butt;stroke-linejoin:miter;stroke-miterlimit:10;stroke-dasharray:none;stroke-opacity:1"
           id="path734"
           inkscape:connector-curvature="0" /><path
           d="m 563.396,837.155 h -41.128 v 13.759 h 41.128 z"
           style="fill:#ffffff;fill-opacity:1;fill-rule:nonzero;stroke:#125d7d;stroke-width:1;stroke-linecap:butt;stroke-linejoin:miter;stroke-miterlimit:10;stroke-dasharray:none;stroke-opacity:1"
           id="path736"
           inkscape:connector-curvature="0" /><path
           d="m 604.525,837.155 h -41.13 v 13.759 h 41.13 z"
           style="fill:#ffffff;fill-opacity:1;fill-rule:nonzero;stroke:#125d7d;stroke-width:1;stroke-linecap:butt;stroke-linejoin:miter;stroke-miterlimit:10;stroke-dasharray:none;stroke-opacity:1"
           id="path738"
           inkscape:connector-curvature="0" /><path
           d="m 645.647,837.155 h -41.122 v 13.759 h 41.122 z"
           style="fill:#ffffff;fill-opacity:1;fill-rule:nonzero;stroke:#125d7d;stroke-width:1;stroke-linecap:butt;stroke-linejoin:miter;stroke-miterlimit:10;stroke-dasharray:none;stroke-opacity:1"
           id="path740"
           inkscape:connector-curvature="0" /><path
           d="m 657.174,837.155 h -11.526 v 13.759 h 11.526 z"
           style="fill:#ffffff;fill-opacity:1;fill-rule:nonzero;stroke:#125d7d;stroke-width:1;stroke-linecap:butt;stroke-linejoin:miter;stroke-miterlimit:10;stroke-dasharray:none;stroke-opacity:1"
           id="path742"
           inkscape:connector-curvature="0" /><path
           d="m 522.268,864.678 h -41.125 v 13.764 h 41.125 z"
           style="fill:#ffffff;fill-opacity:1;fill-rule:nonzero;stroke:#125d7d;stroke-width:1;stroke-linecap:butt;stroke-linejoin:miter;stroke-miterlimit:10;stroke-dasharray:none;stroke-opacity:1"
           id="path744"
           inkscape:connector-curvature="0" /><path
           d="m 481.143,864.678 h -20.559 v 13.764 h 20.559 z"
           style="fill:#ffffff;fill-opacity:1;fill-rule:nonzero;stroke:#125d7d;stroke-width:1;stroke-linecap:butt;stroke-linejoin:miter;stroke-miterlimit:10;stroke-dasharray:none;stroke-opacity:1"
           id="path746"
           inkscape:connector-curvature="0" /><path
           d="m 563.396,864.678 h -41.128 v 13.764 h 41.128 z"
           style="fill:#ffffff;fill-opacity:1;fill-rule:nonzero;stroke:#125d7d;stroke-width:1;stroke-linecap:butt;stroke-linejoin:miter;stroke-miterlimit:10;stroke-dasharray:none;stroke-opacity:1"
           id="path748"
           inkscape:connector-curvature="0" /><path
           d="m 604.525,864.678 h -41.13 v 13.764 h 41.13 z"
           style="fill:#ffffff;fill-opacity:1;fill-rule:nonzero;stroke:#125d7d;stroke-width:1;stroke-linecap:butt;stroke-linejoin:miter;stroke-miterlimit:10;stroke-dasharray:none;stroke-opacity:1"
           id="path750"
           inkscape:connector-curvature="0" /><path
           d="m 645.647,864.678 h -41.122 v 13.764 h 41.122 z"
           style="fill:#ffffff;fill-opacity:1;fill-rule:nonzero;stroke:#125d7d;stroke-width:1;stroke-linecap:butt;stroke-linejoin:miter;stroke-miterlimit:10;stroke-dasharray:none;stroke-opacity:1"
           id="path752"
           inkscape:connector-curvature="0" /><path
           d="m 657.174,864.678 h -11.526 v 13.764 h 11.526 z"
           style="fill:#ffffff;fill-opacity:1;fill-rule:nonzero;stroke:#125d7d;stroke-width:1;stroke-linecap:butt;stroke-linejoin:miter;stroke-miterlimit:10;stroke-dasharray:none;stroke-opacity:1"
           id="path754"
           inkscape:connector-curvature="0" /><path
           d="m 501.705,823.381 h -41.121 v 13.774 h 41.121 z"
           style="fill:#ffffff;fill-opacity:1;fill-rule:nonzero;stroke:#125d7d;stroke-width:1;stroke-linecap:butt;stroke-linejoin:miter;stroke-miterlimit:10;stroke-dasharray:none;stroke-opacity:1"
           id="path756"
           inkscape:connector-curvature="0" /><path
           d="m 542.834,823.381 h -41.129 v 13.774 h 41.129 z"
           style="fill:#ffffff;fill-opacity:1;fill-rule:nonzero;stroke:#125d7d;stroke-width:1;stroke-linecap:butt;stroke-linejoin:miter;stroke-miterlimit:10;stroke-dasharray:none;stroke-opacity:1"
           id="path758"
           inkscape:connector-curvature="0" /><path
           d="m 583.964,823.381 h -41.13 v 13.774 h 41.13 z"
           style="fill:#ffffff;fill-opacity:1;fill-rule:nonzero;stroke:#125d7d;stroke-width:1;stroke-linecap:butt;stroke-linejoin:miter;stroke-miterlimit:10;stroke-dasharray:none;stroke-opacity:1"
           id="path760"
           inkscape:connector-curvature="0" /><path
           d="m 625.087,823.381 h -41.123 v 13.774 h 41.123 z"
           style="fill:#ffffff;fill-opacity:1;fill-rule:nonzero;stroke:#125d7d;stroke-width:1;stroke-linecap:butt;stroke-linejoin:miter;stroke-miterlimit:10;stroke-dasharray:none;stroke-opacity:1"
           id="path762"
           inkscape:connector-curvature="0" /><path
           d="m 657.174,823.381 h -32.087 v 13.774 h 32.087 z"
           style="fill:#ffffff;fill-opacity:1;fill-rule:nonzero;stroke:#125d7d;stroke-width:1;stroke-linecap:butt;stroke-linejoin:miter;stroke-miterlimit:10;stroke-dasharray:none;stroke-opacity:1"
           id="path764"
           inkscape:connector-curvature="0" /><path
           d="m 522.268,809.622 h -41.125 v 13.759 h 41.125 z"
           style="fill:#ffffff;fill-opacity:1;fill-rule:nonzero;stroke:#125d7d;stroke-width:1;stroke-linecap:butt;stroke-linejoin:miter;stroke-miterlimit:10;stroke-dasharray:none;stroke-opacity:1"
           id="path766"
           inkscape:connector-curvature="0" /><path
           d="m 481.143,809.622 h -20.559 v 13.759 h 20.559 z"
           style="fill:#ffffff;fill-opacity:1;fill-rule:nonzero;stroke:#125d7d;stroke-width:1;stroke-linecap:butt;stroke-linejoin:miter;stroke-miterlimit:10;stroke-dasharray:none;stroke-opacity:1"
           id="path768"
           inkscape:connector-curvature="0" /><path
           d="m 563.396,809.622 h -41.128 v 13.759 h 41.128 z"
           style="fill:#ffffff;fill-opacity:1;fill-rule:nonzero;stroke:#125d7d;stroke-width:1;stroke-linecap:butt;stroke-linejoin:miter;stroke-miterlimit:10;stroke-dasharray:none;stroke-opacity:1"
           id="path770"
           inkscape:connector-curvature="0" /><path
           d="m 604.525,809.622 h -41.13 v 13.759 h 41.13 z"
           style="fill:#ffffff;fill-opacity:1;fill-rule:nonzero;stroke:#125d7d;stroke-width:1;stroke-linecap:butt;stroke-linejoin:miter;stroke-miterlimit:10;stroke-dasharray:none;stroke-opacity:1"
           id="path772"
           inkscape:connector-curvature="0" /><path
           d="m 645.647,809.622 h -41.122 v 13.759 h 41.122 z"
           style="fill:#ffffff;fill-opacity:1;fill-rule:nonzero;stroke:#125d7d;stroke-width:1;stroke-linecap:butt;stroke-linejoin:miter;stroke-miterlimit:10;stroke-dasharray:none;stroke-opacity:1"
           id="path774"
           inkscape:connector-curvature="0" /><path
           d="m 657.174,809.622 h -11.526 v 13.759 h 11.526 z"
           style="fill:#ffffff;fill-opacity:1;fill-rule:nonzero;stroke:#125d7d;stroke-width:1;stroke-linecap:butt;stroke-linejoin:miter;stroke-miterlimit:10;stroke-dasharray:none;stroke-opacity:1"
           id="path776"
           inkscape:connector-curvature="0" /><path
           d="m 501.705,795.989 h -41.121 v 13.764 h 41.121 z"
           style="fill:#ffffff;fill-opacity:1;fill-rule:nonzero;stroke:#125d7d;stroke-width:1;stroke-linecap:butt;stroke-linejoin:miter;stroke-miterlimit:10;stroke-dasharray:none;stroke-opacity:1"
           id="path778"
           inkscape:connector-curvature="0" /><path
           d="m 542.834,795.989 h -41.129 v 13.764 h 41.129 z"
           style="fill:#ffffff;fill-opacity:1;fill-rule:nonzero;stroke:#125d7d;stroke-width:1;stroke-linecap:butt;stroke-linejoin:miter;stroke-miterlimit:10;stroke-dasharray:none;stroke-opacity:1"
           id="path780"
           inkscape:connector-curvature="0" /><path
           d="m 583.964,795.989 h -41.13 v 13.764 h 41.13 z"
           style="fill:#ffffff;fill-opacity:1;fill-rule:nonzero;stroke:#125d7d;stroke-width:1;stroke-linecap:butt;stroke-linejoin:miter;stroke-miterlimit:10;stroke-dasharray:none;stroke-opacity:1"
           id="path782"
           inkscape:connector-curvature="0" /><path
           d="m 625.087,795.989 h -41.123 v 13.764 h 41.123 z"
           style="fill:#ffffff;fill-opacity:1;fill-rule:nonzero;stroke:#125d7d;stroke-width:1;stroke-linecap:butt;stroke-linejoin:miter;stroke-miterlimit:10;stroke-dasharray:none;stroke-opacity:1"
           id="path784"
           inkscape:connector-curvature="0" /><path
           d="m 657.174,795.989 h -32.087 v 13.764 h 32.087 z"
           style="fill:#ffffff;fill-opacity:1;fill-rule:nonzero;stroke:#125d7d;stroke-width:1;stroke-linecap:butt;stroke-linejoin:miter;stroke-miterlimit:10;stroke-dasharray:none;stroke-opacity:1"
           id="path786"
           inkscape:connector-curvature="0" /><path
           d="m 522.268,782.227 h -41.125 v 13.762 h 41.125 z"
           style="fill:#ffffff;fill-opacity:1;fill-rule:nonzero;stroke:#125d7d;stroke-width:1;stroke-linecap:butt;stroke-linejoin:miter;stroke-miterlimit:10;stroke-dasharray:none;stroke-opacity:1"
           id="path788"
           inkscape:connector-curvature="0" /><path
           d="m 481.143,782.227 h -20.559 v 13.762 h 20.559 z"
           style="fill:#ffffff;fill-opacity:1;fill-rule:nonzero;stroke:#125d7d;stroke-width:1;stroke-linecap:butt;stroke-linejoin:miter;stroke-miterlimit:10;stroke-dasharray:none;stroke-opacity:1"
           id="path790"
           inkscape:connector-curvature="0" /><path
           d="m 563.396,782.227 h -41.128 v 13.762 h 41.128 z"
           style="fill:#ffffff;fill-opacity:1;fill-rule:nonzero;stroke:#125d7d;stroke-width:1;stroke-linecap:butt;stroke-linejoin:miter;stroke-miterlimit:10;stroke-dasharray:none;stroke-opacity:1"
           id="path792"
           inkscape:connector-curvature="0" /><path
           d="m 604.525,782.227 h -41.13 v 13.762 h 41.13 z"
           style="fill:#ffffff;fill-opacity:1;fill-rule:nonzero;stroke:#125d7d;stroke-width:1;stroke-linecap:butt;stroke-linejoin:miter;stroke-miterlimit:10;stroke-dasharray:none;stroke-opacity:1"
           id="path794"
           inkscape:connector-curvature="0" /><path
           d="m 645.647,782.227 h -41.122 v 13.762 h 41.122 z"
           style="fill:#ffffff;fill-opacity:1;fill-rule:nonzero;stroke:#125d7d;stroke-width:1;stroke-linecap:butt;stroke-linejoin:miter;stroke-miterlimit:10;stroke-dasharray:none;stroke-opacity:1"
           id="path796"
           inkscape:connector-curvature="0" /><path
           d="m 657.174,782.227 h -11.526 v 13.762 h 11.526 z"
           style="fill:#ffffff;fill-opacity:1;fill-rule:nonzero;stroke:#125d7d;stroke-width:1;stroke-linecap:butt;stroke-linejoin:miter;stroke-miterlimit:10;stroke-dasharray:none;stroke-opacity:1"
           id="path798"
           inkscape:connector-curvature="0" /><path
           d="m 501.705,768.463 h -41.121 v 13.764 h 41.121 z"
           style="fill:#ffffff;fill-opacity:1;fill-rule:nonzero;stroke:#125d7d;stroke-width:1;stroke-linecap:butt;stroke-linejoin:miter;stroke-miterlimit:10;stroke-dasharray:none;stroke-opacity:1"
           id="path800"
           inkscape:connector-curvature="0" /><path
           d="m 542.834,768.463 h -41.129 v 13.764 h 41.129 z"
           style="fill:#ffffff;fill-opacity:1;fill-rule:nonzero;stroke:#125d7d;stroke-width:1;stroke-linecap:butt;stroke-linejoin:miter;stroke-miterlimit:10;stroke-dasharray:none;stroke-opacity:1"
           id="path802"
           inkscape:connector-curvature="0" /><path
           d="m 583.964,768.463 h -41.13 v 13.764 h 41.13 z"
           style="fill:#ffffff;fill-opacity:1;fill-rule:nonzero;stroke:#125d7d;stroke-width:1;stroke-linecap:butt;stroke-linejoin:miter;stroke-miterlimit:10;stroke-dasharray:none;stroke-opacity:1"
           id="path804"
           inkscape:connector-curvature="0" /><path
           d="m 625.087,768.463 h -41.123 v 13.764 h 41.123 z"
           style="fill:#ffffff;fill-opacity:1;fill-rule:nonzero;stroke:#125d7d;stroke-width:1;stroke-linecap:butt;stroke-linejoin:miter;stroke-miterlimit:10;stroke-dasharray:none;stroke-opacity:1"
           id="path806"
           inkscape:connector-curvature="0" /><path
           d="m 657.174,768.463 h -32.087 v 13.764 h 32.087 z"
           style="fill:#ffffff;fill-opacity:1;fill-rule:nonzero;stroke:#125d7d;stroke-width:1;stroke-linecap:butt;stroke-linejoin:miter;stroke-miterlimit:10;stroke-dasharray:none;stroke-opacity:1"
           id="path808"
           inkscape:connector-curvature="0" /><path
           d="m 582.891,806.585 h -50.516 v 60.001 h 50.516 z"
           style="fill:#2ba9cb;fill-opacity:1;fill-rule:nonzero;stroke:#2ba9cb;stroke-width:1;stroke-linecap:butt;stroke-linejoin:miter;stroke-miterlimit:10;stroke-dasharray:none;stroke-opacity:1"
           id="path810"
           inkscape:connector-curvature="0" /><path
           d="m 582.891,783.643 h -50.516 v 22.942 h 50.516 z"
           style="fill:#2ba9cb;fill-opacity:1;fill-rule:nonzero;stroke:#ffffff;stroke-width:1;stroke-linecap:butt;stroke-linejoin:miter;stroke-miterlimit:10;stroke-dasharray:none;stroke-opacity:1"
           id="path812"
           inkscape:connector-curvature="0" /><g
           id="g814"
           transform="translate(538.1377,800.0933)"><path
             d="M 0,0 H 39.638"
             style="fill:none;stroke:#ffffff;stroke-width:1;stroke-linecap:butt;stroke-linejoin:miter;stroke-miterlimit:10;stroke-dasharray:none;stroke-opacity:1"
             id="path816"
             inkscape:connector-curvature="0" /></g><g
           id="g818"
           transform="translate(538.1377,791.0825)"><path
             d="M 0,0 H 39.638"
             style="fill:none;stroke:#ffffff;stroke-width:1;stroke-linecap:butt;stroke-linejoin:miter;stroke-miterlimit:10;stroke-dasharray:none;stroke-opacity:1"
             id="path820"
             inkscape:connector-curvature="0" /></g><g
           id="g822"
           transform="translate(564.5156,849.2593)"><path
             d="m 0,0 h -15.987 c -0.304,0 -0.549,-0.282 -0.549,-0.634 V -5 c 0,-0.352 0.245,-0.637 0.549,-0.637 h 5.008 c 0.304,0 0.549,-0.284 0.549,-0.636 V -22.4 c 0,-0.351 0.247,-0.636 0.551,-0.636 h 3.773 c 0.303,0 0.549,0.285 0.549,0.636 v 16.127 c 0,0.352 0.246,0.636 0.55,0.636 H 0 c 0.305,0 0.551,0.285 0.551,0.637 v 4.366 C 0.551,-0.282 0.305,0 0,0"
             style="fill:#ffffff;fill-opacity:1;fill-rule:nonzero;stroke:none"
             id="path824"
             inkscape:connector-curvature="0" /></g><g
           id="g826"
           transform="translate(554.084,857.9385)"><path
             d="m 0,0 v -4.362 c 0,-0.352 0.246,-0.637 0.551,-0.637 h 3.773 c 0.303,0 0.549,0.285 0.549,0.637 V 0 c 0,0.352 -0.246,0.638 -0.549,0.638 H 0.551 C 0.246,0.638 0,0.352 0,0"
             style="fill:#ffffff;fill-opacity:1;fill-rule:nonzero;stroke:none"
             id="path828"
             inkscape:connector-curvature="0" /></g><g
           id="g830"
           transform="translate(551.2949,819.2866)"><path
             d="M 0,0 C 0.424,0.864 1.014,1.868 1.72,2.826 1.952,3.139 1.872,3.624 1.551,3.81 1.407,3.894 1.264,3.976 1.121,4.06 -2.36,6.055 -4.541,7.584 -4.744,11.4 -4.762,11.739 -5,12.004 -5.292,12.004 h -3.062 c -0.314,0 -0.563,-0.304 -0.548,-0.667 C -8.635,4.285 -4.076,1.674 -0.726,-0.247 -0.724,-0.25 -0.722,-0.25 -0.722,-0.25 -0.461,-0.4 -0.143,-0.294 0,0"
             style="fill:#ffffff;fill-opacity:1;fill-rule:nonzero;stroke:none"
             id="path832"
             inkscape:connector-curvature="0" /></g><g
           id="g834"
           transform="translate(567.043,831.291)"><path
             d="m 0,0 c -0.293,0 -0.529,-0.266 -0.548,-0.604 -0.204,-3.816 -2.383,-5.346 -5.864,-7.34 -1.302,-0.749 -2.677,-1.544 -3.791,-2.609 h -0.031 c -1.792,-1.637 -2.424,-3.245 -2.514,-6.394 -0.01,-0.358 0.239,-0.657 0.549,-0.657 h 3.311 c 0.295,0 0.534,0.27 0.55,0.612 0.044,1.113 0.311,2.35 1.815,3.543 0.014,0.011 0.028,0.021 0.042,0.033 0.522,0.348 1.147,0.725 1.914,1.165 3.353,1.92 7.909,4.531 8.178,11.584 C 3.626,-0.305 3.374,0 3.061,0 Z"
             style="fill:#ffffff;fill-opacity:1;fill-rule:nonzero;stroke:none"
             id="path836"
             inkscape:connector-curvature="0" /></g></g></g></g></svg>