<?xml version="1.0" encoding="utf-8"?>
<!-- Generator: Adobe Illustrator 16.0.0, SVG Export Plug-In . SVG Version: 6.00 Build 0)  -->
<!DOCTYPE svg PUBLIC "-//W3C//DTD SVG 1.1//EN" "http://www.w3.org/Graphics/SVG/1.1/DTD/svg11.dtd">
<svg version="1.1" xmlns="http://www.w3.org/2000/svg" xmlns:xlink="http://www.w3.org/1999/xlink" x="0px" y="0px" width="250px"
	 height="250px" viewBox="0 0 250 250" enable-background="new 0 0 250 250" xml:space="preserve">
<g id="Layer_3">
	<path fill="none" stroke="#E7862A" stroke-width="2" stroke-miterlimit="10" d="M45.997,37.958L55.5,36.5L69.75,45l10.5-1.75L84,39
		l8.75,0.25V48L80,53.5l3.75,8.25l0.5,5h4.5l4-9.75l10-4.25l8.75,5v9l-14,5v3.75H93L80.5,93.75h-5.25l-0.25,9h-5l-3.25-4.25h-10
		l-8.5,13l4.5,5.75l4-5h4.75l4.75,8.75v5.25l8.5,4L84,125l13.5,5.25l1,4.25h8.25l4.75,6l18,7.75V158l-4.5,17.75l-9.25,4l-4.25,13.75
		l-5,5.25l-4.25,7.75l0.25,9.5l-4.25,4.75h-5l-13.5-27.25l4.75-13.75l-0.25-9.25l-13.75-8.75l-4.75-13.5L71,139.5L57.75,125l-8.25-4
		l-15-4.75v-9l-4-4.75l-5.25-0.5l-4-7.75l-0.524-20.896C20.726,73.354,27.243,56.167,45.997,37.958z"/>
	<polygon fill="none" stroke="#E7862A" stroke-width="2" stroke-miterlimit="10" points="79.75,39.25 70.5,39.25 70.5,35.375 
		79.75,30.625 83.875,34.938 	"/>
	<polygon fill="none" stroke="#E7862A" stroke-width="2" stroke-miterlimit="10" points="98.25,39.25 107,48.125 111.375,43.688 
		115.75,48.125 115.75,43.688 111.75,39.25 102.375,34.938 	"/>
	<polygon fill="none" stroke="#E7862A" stroke-width="2" stroke-miterlimit="10" points="111.5,34.938 102.625,30.625 
		102.625,21.125 111.5,21.125 120.5,26.125 120.5,30.625 	"/>
	<polygon fill="none" stroke="#E7862A" stroke-width="2" stroke-miterlimit="10" points="134.125,57.75 129.5,53.25 129.5,48.125 
		134.125,44.375 134.125,39.25 129.5,34.938 129.5,30.625 138.5,25.875 156.875,25.875 161.125,34.938 156.75,44 138.625,48.125 	
		"/>
	<path fill="none" stroke="#E7862A" stroke-width="2" stroke-miterlimit="10" d="M211.222,45.478l-9.347,3.272L197.5,39.5h-13.75
		l-9.25,9.25l-8.75,4.375v4.625h9.5l4.125-4.625H184l4.486,9.25H179l-3.75,4.375h-9.5L152.375,80.5v4.25L165,80.125h9.75V75.5h5
		L184,89.125h4.75v-4.75l4.25-4.25l4.5,9h5.25L206.625,94l-9.125,4.5l-8.875-4.625l-4.75,4.625l-9.125-4.375l-4.25-4.5h-9.375
		l-4.125,4.5h-4.625L142.75,98.5l-8.375,13.75l4.25,8.75l-4.25,4.75l8.875,13.625l18.25-4.875l13.5,22.375v14.5l9,22.125h9.125
		l13.375-13.625v-9.75l4.722-7.75v-10l17.903-22.125l-4.375-4.5h-9.375l-9-9.25L202,102.75h4.875l4.625,5v4.5l8.75,4.25v4.5l8.875-4
		l9.64-10.047L234,103.25l-9.375-0.5v-4.625l13.568,4.759C238.193,102.884,233.259,67.516,211.222,45.478z"/>
</g>
<g id="Layer_1">
	<circle fill="none" stroke="#135D7E" stroke-width="6" stroke-miterlimit="10" cx="125" cy="121" r="114.619"/>
</g>
</svg>
