<?xml version="1.0" encoding="utf-8"?>
<!-- Generator: Adobe Illustrator 16.0.0, SVG Export Plug-In . SVG Version: 6.00 Build 0)  -->
<!DOCTYPE svg PUBLIC "-//W3C//DTD SVG 1.1//EN" "http://www.w3.org/Graphics/SVG/1.1/DTD/svg11.dtd">
<svg version="1.1" id="Layer_1" xmlns="http://www.w3.org/2000/svg" xmlns:xlink="http://www.w3.org/1999/xlink" x="0px" y="0px"
	 width="250px" height="250px" viewBox="0 0 250 250" enable-background="new 0 0 250 250" xml:space="preserve">
<path fill="#145E7E" d="M244.91,124.992c0,66.231-53.69,119.906-119.907,119.906c-66.231,0-119.907-53.675-119.907-119.906
	C5.097,58.776,58.772,5.1,125.003,5.1C191.22,5.1,244.91,58.776,244.91,124.992z"/>
<path fill="#FFFFFF" d="M136.759,194.1c0,7.737-6.301,14.037-14.038,14.037l0,0c-7.768,0-14.053-6.3-14.053-14.037v-90.868
	c0-7.768,6.285-14.053,14.053-14.053l0,0c7.737,0,14.038,6.285,14.038,14.053V194.1z"/>
<path fill="#FFFFFF" d="M136.744,53.158c0,7.753-6.286,14.053-14.038,14.053c-7.753,0-14.038-6.3-14.038-14.053
	s6.285-14.038,14.038-14.038C130.458,39.12,136.744,45.405,136.744,53.158z"/>
</svg>
