<?xml version="1.0" encoding="utf-8"?>
<!-- Generator: Adobe Illustrator 16.0.0, SVG Export Plug-In . SVG Version: 6.00 Build 0)  -->
<!DOCTYPE svg PUBLIC "-//W3C//DTD SVG 1.1//EN" "http://www.w3.org/Graphics/SVG/1.1/DTD/svg11.dtd">
<svg version="1.1" xmlns="http://www.w3.org/2000/svg" xmlns:xlink="http://www.w3.org/1999/xlink" x="0px" y="0px" width="250px"
	 height="250px" viewBox="0 0 250 250" enable-background="new 0 0 250 250" xml:space="preserve">
<g id="Layer_1">
</g>
<g id="Layer_2">
	<g>
		<g>
			
				<line fill="none" stroke="#FFFFFF" stroke-width="17" stroke-miterlimit="10" x1="4.87" y1="124.999" x2="150.092" y2="124.999"/>
			<g>
				<polygon fill="#FFFFFF" points="93.762,194.526 82.166,182.075 143.566,125.016 82.166,67.939 93.762,55.488 168.527,125.016 
									"/>
			</g>
		</g>
	</g>
	<polyline fill="none" stroke="#FFFFFF" stroke-width="17" stroke-miterlimit="10" points="86.7,12.512 238.857,12.512 
		238.857,237.488 86.7,237.488 	"/>
</g>
</svg>
