<?xml version="1.0" encoding="utf-8"?>
<!-- Generator: Adobe Illustrator 16.0.0, SVG Export Plug-In . SVG Version: 6.00 Build 0)  -->
<!DOCTYPE svg PUBLIC "-//W3C//DTD SVG 1.1//EN" "http://www.w3.org/Graphics/SVG/1.1/DTD/svg11.dtd">
<svg version="1.1" id="Layer_1" xmlns="http://www.w3.org/2000/svg" xmlns:xlink="http://www.w3.org/1999/xlink" x="0px" y="0px"
	 width="250px" height="250px" viewBox="0 0 250 250" enable-background="new 0 0 250 250" xml:space="preserve">
<polygon fill="none" stroke="#E8872A" stroke-width="10" stroke-miterlimit="10" points="163.624,85.815 163.624,8.527 
	86.332,8.527 86.332,85.815 9.038,85.815 9.038,163.108 86.332,163.108 86.332,240.401 163.624,240.401 163.624,163.108 
	240.917,163.108 240.917,85.815 "/>
</svg>
