<?xml version="1.0" encoding="utf-8"?>
<!-- Generator: Adobe Illustrator 16.0.0, SVG Export Plug-In . SVG Version: 6.00 Build 0)  -->
<!DOCTYPE svg PUBLIC "-//W3C//DTD SVG 1.1//EN" "http://www.w3.org/Graphics/SVG/1.1/DTD/svg11.dtd">
<svg version="1.1" id="Layer_1" xmlns="http://www.w3.org/2000/svg" xmlns:xlink="http://www.w3.org/1999/xlink" x="0px" y="0px"
	 width="230px" height="250px" viewBox="0 0 230 250" enable-background="new 0 0 230 250" xml:space="preserve">
<path fill="none" stroke="#155E7F" stroke-width="9" stroke-linejoin="round" stroke-miterlimit="10" d="M92.032,166.389
	c30.084,2.487,38.867-11.234,39.848-23.015c0.971-11.781-7.785-22.115-19.566-23.081l0.961,0.071
	c-11.781-0.961-20.536-11.3-19.566-23.077c0.971-11.78,9.773-25.503,39.858-23.029"/>
<line fill="none" stroke="#155E7F" stroke-width="9" stroke-linejoin="round" stroke-miterlimit="10" x1="114.284" y1="188.046" x2="114.284" y2="164.561"/>
<line fill="none" stroke="#155E7F" stroke-width="9" stroke-linejoin="round" stroke-miterlimit="10" x1="114.284" y1="73.966" x2="114.284" y2="50.489"/>
<g>
	
		<polyline fill="none" stroke="#155E7F" stroke-width="9" stroke-linecap="round" stroke-linejoin="round" stroke-miterlimit="10" points="
		114.482,8.074 185.854,8.074 185.854,144.787 222.837,144.787 116.367,241.06 	"/>
	
		<polyline fill="none" stroke="#155E7F" stroke-width="9" stroke-linecap="round" stroke-linejoin="round" stroke-miterlimit="10" points="
		116.367,8.074 44.014,8.074 44.014,144.787 6.522,144.787 114.454,241.06 	"/>
</g>
</svg>
