<?xml version="1.0" encoding="utf-8"?>
<!-- Generator: Adobe Illustrator 16.0.0, SVG Export Plug-In . SVG Version: 6.00 Build 0)  -->
<!DOCTYPE svg PUBLIC "-//W3C//DTD SVG 1.1//EN" "http://www.w3.org/Graphics/SVG/1.1/DTD/svg11.dtd">
<svg version="1.1" id="Layer_1" xmlns="http://www.w3.org/2000/svg" xmlns:xlink="http://www.w3.org/1999/xlink" x="0px" y="0px"
	 width="50px" height="50px" viewBox="0 0 50 50" enable-background="new 0 0 50 50" xml:space="preserve">
<g>
	<g>
		<line fill="none" stroke="#E7862A" stroke-width="3" stroke-miterlimit="10" x1="48.762" y1="24.998" x2="22.766" y2="24.998"/>
		<g>
			<polygon fill="#E7862A" points="27.143,10.039 1.237,24.998 27.143,39.957 			"/>
		</g>
	</g>
</g>
<rect x="16.996" y="16.546" fill="#E7862A" width="31.767" height="16.903"/>
</svg>
