<?xml version="1.0" encoding="iso-8859-1"?>
<!-- Generator: Adobe Illustrator 19.0.0, SVG Export Plug-In . SVG Version: 6.00 Build 0)  -->
<svg version="1.1" id="Layer_1" xmlns="http://www.w3.org/2000/svg" xmlns:xlink="http://www.w3.org/1999/xlink" x="0px" y="0px"
	 viewBox="0 0 512 512" style="enable-background:new 0 0 512 512;" xml:space="preserve">
<path style="fill:#45C1F1;" d="M467,61H45C20.098,61,0,81.098,0,106v300c0,24.902,20.098,45,45,45h422c24.902,0,45-20.098,45-45V106
	C512,81.098,491.902,61,467,61z"/>
<path style="fill:#44A4EC;" d="M467,61H257v390h210c24.902,0,45-20.098,45-45V106C512,81.098,491.902,61,467,61z"/>
<path style="fill:#F23051;" d="M332,391c-33.076,0-60-26.924-60-60s26.924-60,60-60c14.941,0,29.209,5.566,40.166,15.645
	c3.135,2.9,4.893,7.002,4.834,11.25c-0.059,4.277-1.934,8.291-5.156,11.104C365.604,314.447,362,322.475,362,331
	s3.604,16.553,9.844,22.002c3.223,2.813,5.098,6.826,5.156,11.104c0.059,4.248-1.699,8.35-4.834,11.25
	C361.209,385.434,346.941,391,332,391z"/>
<path style="fill:#FCB33B;" d="M392,391c-14.941,0-29.209-5.566-40.166-15.645C339.354,364.457,332,348.197,332,331
	s7.354-33.457,20.156-44.619C362.791,276.566,377.059,271,392,271c33.076,0,60,26.924,60,60S425.076,391,392,391z"/>
<path style="fill:#5C5F66;" d="M0,121v120h512V121H0z"/>
<rect x="257" y="121" style="fill:#53565C;" width="255" height="120"/>
<g>
	<path style="fill:#5C5F66;" d="M227,361H75c-8.291,0-15-6.709-15-15s6.709-15,15-15h152c8.291,0,15,6.709,15,15
		S235.291,361,227,361z"/>
	<path style="fill:#5C5F66;" d="M167,301H75c-8.291,0-15-6.709-15-15s6.709-15,15-15h92c8.291,0,15,6.709,15,15S175.291,301,167,301
		z"/>
</g>
<g>
</g>
<g>
</g>
<g>
</g>
<g>
</g>
<g>
</g>
<g>
</g>
<g>
</g>
<g>
</g>
<g>
</g>
<g>
</g>
<g>
</g>
<g>
</g>
<g>
</g>
<g>
</g>
<g>
</g>
</svg>
